module maunium.net/go/mautrix-whatsapp

go 1.17

require (
	github.com/gorilla/mux v1.8.0
	github.com/gorilla/websocket v1.5.0
	github.com/lib/pq v1.10.6
	github.com/mattn/go-sqlite3 v1.14.15
	github.com/prometheus/client_golang v1.13.0
	github.com/skip2/go-qrcode v0.0.0-20200617195104-da1b6568686e
	github.com/tidwall/gjson v1.14.2
	go.mau.fi/whatsmeow v0.0.0-20220811191500-f650c10b0068
	golang.org/x/image v0.0.0-20220722155232-062f8c9fd539
	golang.org/x/net v0.0.0-20220812174116-3211cb980234
	google.golang.org/protobuf v1.28.1
	maunium.net/go/maulogger/v2 v2.3.2
	maunium.net/go/mautrix v0.12.0
)

require (
	filippo.io/edwards25519 v1.0.0 // indirect
	github.com/beorn7/perks v1.0.1 // indirect
	github.com/cespare/xxhash/v2 v2.1.2 // indirect
	github.com/golang/protobuf v1.5.2 // indirect
	github.com/mattn/go-colorable v0.1.12 // indirect
	github.com/mattn/go-isatty v0.0.14 // indirect
	github.com/matttproud/golang_protobuf_extensions v1.0.1 // indirect
	github.com/prometheus/client_model v0.2.0 // indirect
	github.com/prometheus/common v0.37.0 // indirect
	github.com/prometheus/procfs v0.8.0 // indirect
	github.com/rs/zerolog v1.27.0 // indirect
	github.com/tidwall/match v1.1.1 // indirect
	github.com/tidwall/pretty v1.2.0 // indirect
	github.com/tidwall/sjson v1.2.4 // indirect
	github.com/yuin/goldmark v1.4.12 // indirect
	go.mau.fi/libsignal v0.0.0-20220628090436-4d18b66b087e // indirect
	golang.org/x/crypto v0.0.0-20220622213112-05595931fe9d // indirect
	golang.org/x/sys v0.0.0-20220728004956-3c1f35247d10 // indirect
	golang.org/x/text v0.3.7 // indirect
	gopkg.in/yaml.v3 v3.0.1 // indirect
	maunium.net/go/mauflag v1.0.0 // indirect
)

// Exclude some things that cause go.sum to explode
exclude (
	cloud.google.com/go v0.65.0
	github.com/prometheus/client_golang v1.12.1
	google.golang.org/appengine v1.6.6
)
